current_timestep,action,reward,done,current_replicas,pods_backoff,pod_cpu_util,latency_violation,latency,cpu_threshold
0,2,0.0,False,1.0,0.0,17.0,1,0.2623758644265362,20.0
0,2,100.0,False,1.0,0.0,18.0,0,0.24832902417209887,40.0
0,2,100.0,False,1.0,0.0,18.0,0,0.23734287638190624,60.0
0,2,100.0,False,1.0,0.0,12.0,0,0.1669597350964584,80.0
0,2,100.0,False,1.0,0.0,17.0,0,0.22991854931337233,100.0
1,2,0.0,False,3.0,0.0,38.0,1,0.7858374884579873,40.0
1,2,0.0,False,2.0,0.0,70.0,1,2.530004784688998,60.0
1,2,0.0,False,2.0,0.0,48.0,1,0.7677886405959008,80.0
1,2,100.0,False,1.0,0.0,87.0,0,0.14425800865800836,100.0
1,2,0.0,False,1.0,0.0,98.0,1,3.4315084985835704,100.0
2,2,95.65799713134766,False,2.0,0.0,48.0,0,0.17540798611110872,60.0
2,2,0.0,False,2.0,0.0,61.0,1,0.2579878472222197,80.0
2,2,0.0,False,10.0,0.0,100.0,1,3.4234269503546155,0.0
2,2,100.0,False,1.0,0.0,83.0,0,0.14782683982683942,100.0
2,2,0.0,False,1.0,0.0,98.0,1,3.3581156661786333,100.0
3,2,0.0,False,1.0,0.0,17.0,1,0.27289696969698085,80.0
3,2,0.0,False,1.0,0.0,17.0,1,0.2825999999999939,100.0
3,2,100.0,True,1.0,0.0,18.0,0,0.2111595092024755,100.0
3,2,100.0,False,1.0,0.0,12.0,0,0.19091515151515134,100.0
3,2,0.0,False,1.0,0.0,18.0,1,0.3089194630872636,100.0
4,2,100.0,False,1.0,0.0,18.0,0,0.24150303030306033,100.0
4,2,100.0,False,1.0,0.0,20.0,0,0.23401212121209963,100.0
4,2,0.0,False,10.0,0.0,0.0,0,0.2165333333333547,0.0
4,2,100.0,False,1.0,0.0,12.0,0,0.15955151515151733,100.0
4,2,100.0,False,1.0,0.0,21.0,0,0.23495151515150306,100.0
5,2,0.0,False,1.0,0.0,98.0,1,3.561172857142858,100.0
5,2,0.0,False,1.0,0.0,100.0,1,3.4107369165487986,100.0
5,0,0.0,False,1.0,0.0,17.0,1,0.25084771202911627,40.0
5,2,100.0,False,1.0,0.0,85.0,0,0.15140570934256006,100.0
5,2,0.0,False,1.0,0.0,100.0,1,3.3764008321775356,100.0
6,2,0.0,False,1.0,0.0,98.0,1,3.444824929971995,100.0
6,2,0.0,False,1.0,0.0,98.0,1,3.279817220543801,100.0
6,2,0.0,False,2.0,0.0,48.0,1,0.8173462603878123,60.0
6,2,100.0,False,1.0,0.0,88.0,0,0.14633304498269942,100.0
6,2,0.0,False,1.0,0.0,98.0,1,3.3457633477633535,100.0
7,2,100.0,False,1.0,11.0,17.0,0,0.16285714285709868,100.0
7,2,0.0,False,1.0,8.0,16.0,1,1.9508309859154802,100.0
7,2,95.40088653564453,False,2.0,0.0,51.0,0,0.1724258456201233,80.0
7,2,100.0,False,1.0,0.0,12.0,0,0.10224242424242978,100.0
7,2,100.0,False,1.0,13.0,16.0,0,0.16603846153835689,100.0
8,2,100.0,False,1.0,11.0,17.0,0,0.17546060606057862,100.0
8,2,100.0,False,1.0,8.0,18.0,0,0.18010909090911204,100.0
8,2,100.0,False,1.0,0.0,16.0,0,0.16396969696972352,100.0
8,2,100.0,False,1.0,0.0,12.0,0,0.08710303030303831,100.0
8,2,100.0,False,1.0,13.0,16.0,0,0.17024242424238104,100.0
9,2,0.0,False,1.0,11.0,100.0,1,3.3584698630136876,100.0
9,2,0.0,False,1.0,8.0,100.0,1,3.3597863128491414,100.0
9,2,100.0,False,1.0,0.0,16.0,0,0.21769696969696462,100.0
9,2,100.0,False,1.0,0.0,82.0,0,0.14427595155709738,100.0
9,2,0.0,False,1.0,13.0,98.0,1,3.4960756302520806,100.0
10,2,0.0,False,1.0,11.0,100.0,1,3.2385021770682143,100.0
10,2,0.0,False,1.0,8.0,0.0,1,3.0609382352940964,100.0
10,2,0.0,False,1.0,0.0,100.0,1,3.3843504867871967,100.0
10,2,100.0,False,1.0,0.0,83.0,0,0.1411955017300898,100.0
10,2,0.0,False,1.0,13.0,100.0,1,3.2107658402203727,100.0
11,2,100.0,False,1.0,11.0,15.0,0,0.1347887323943621,100.0
11,2,0.0,False,1.0,8.0,16.0,1,0.6701219512193879,100.0
11,2,0.0,False,1.0,0.0,98.0,1,3.204870206489683,100.0
11,2,100.0,False,1.0,0.0,11.0,0,0.11476829268290259,100.0
11,2,100.0,False,1.0,13.0,15.0,0,0.1619210526315615,100.0
12,2,100.0,False,1.0,11.0,17.0,0,0.18180000000004037,100.0
12,2,100.0,False,1.0,8.0,20.0,0,0.2404363636363114,100.0
12,2,0.0,False,1.0,0.0,18.0,1,0.30485507246375276,100.0
12,2,100.0,False,1.0,0.0,12.0,0,0.18853939393938243,100.0
12,2,100.0,False,1.0,13.0,17.0,0,0.2391515151515429,100.0
13,2,0.0,False,1.0,11.0,98.0,1,3.3613006802721217,100.0
13,2,0.0,False,1.0,8.0,98.0,1,3.262534979423832,100.0
13,2,100.0,False,1.0,0.0,17.0,0,0.17803636363637038,100.0
13,2,100.0,False,1.0,0.0,86.0,0,0.143094372294371,100.0
13,2,0.0,False,1.0,13.0,100.0,1,3.220513661202192,100.0
14,2,0.0,False,1.0,11.0,98.0,1,3.25181205164994,100.0
14,2,0.0,False,1.0,8.0,100.0,1,3.115024926686241,100.0
14,2,0.0,False,10.0,0.0,98.0,1,3.2535107816711477,0.0
14,2,0.0,False,1.0,0.0,86.0,1,0.5687508710801359,100.0
14,2,0.0,False,1.0,13.0,100.0,1,3.0492257597685293,100.0
15,2,0.0,False,1.0,11.0,17.0,1,0.48478787878814195,100.0
15,2,0.0,False,1.0,8.0,13.0,1,0.6981575757572885,100.0
15,2,0.0,True,10.0,18.0,100.0,1,3.3175536959553766,0.0
15,2,100.0,False,1.0,0.0,12.0,0,0.165945454545382,100.0
15,2,0.0,False,1.0,13.0,16.0,1,0.29575362318823667,100.0
16,2,0.0,False,1.0,11.0,18.0,1,0.28689634146296783,100.0
16,2,100.0,False,1.0,8.0,16.0,0,0.24107317073177423,100.0
16,2,0.0,False,10.0,18.0,0.0,1,3.3479971181556167,0.0
16,2,100.0,False,1.0,0.0,13.0,0,0.11021951219516644,100.0
16,2,100.0,False,1.0,13.0,17.0,0,0.23695121951191028,100.0
17,2,0.0,False,1.0,0.0,100.0,1,3.4180450070323074,100.0
17,2,0.0,False,1.0,0.0,98.0,1,3.4360441595441125,100.0
17,2,100.0,False,1.0,18.0,15.0,0,0.22872807787119878,80.0
17,2,100.0,False,1.0,0.0,82.0,0,0.14420746527776473,100.0
17,2,0.0,False,1.0,0.0,98.0,1,3.4251825962910547,100.0
18,2,0.0,False,1.0,0.0,100.0,1,3.261060561299859,100.0
18,2,0.0,False,1.0,0.0,100.0,1,3.0128162393162286,100.0
18,2,0.0,False,1.0,18.0,100.0,1,3.2913498659517453,100.0
18,2,100.0,False,1.0,0.0,86.0,0,0.14116262975779784,100.0
18,2,0.0,False,1.0,0.0,100.0,1,3.275846796657282,100.0
19,2,100.0,False,1.0,44.0,18.0,0,0.22458108108145786,100.0
19,2,0.0,False,1.0,15.0,18.0,1,0.42171999999986526,100.0
19,2,0.0,False,1.0,18.0,97.0,1,3.364984240687691,100.0
19,2,100.0,False,1.0,0.0,12.0,0,0.17357575757577057,100.0
19,2,100.0,False,1.0,47.0,16.0,0,0.19412499999984903,100.0
20,0,100.0,False,1.0,0.0,15.0,0,0.12921117839981233,20.0
20,0,100.0,False,1.0,0.0,16.0,0,0.14074322684407992,40.0
20,0,100.0,False,1.0,0.0,17.0,0,0.2305246329444333,60.0
20,0,100.0,False,1.0,0.0,18.0,0,0.21722347930254218,80.0
20,0,100.0,False,1.0,0.0,18.0,0,0.22924870365316388,100.0
21,2,0.0,False,3.0,0.0,35.0,1,1.4318438735177859,40.0
21,2,0.0,False,2.0,0.0,60.0,1,1.377628107074571,60.0
21,2,0.0,False,2.0,0.0,61.0,1,1.3493837535014028,80.0
21,2,0.0,False,1.0,0.0,98.0,1,3.1824444444444486,100.0
21,2,0.0,False,1.0,0.0,98.0,1,3.2371742627345816,100.0
22,2,95.21199035644531,False,2.0,0.0,48.0,0,0.17041955017300792,60.0
22,2,87.00306701660156,False,2.0,0.0,60.0,0,0.21362716262975717,80.0
22,2,0.0,False,10.0,0.0,98.0,1,0.7831852861035402,0.0
22,2,0.0,False,1.0,0.0,98.0,1,2.1700782918149404,100.0
22,2,0.0,False,1.0,0.0,100.0,1,1.9036850117095974,100.0
23,2,100.0,False,1.0,0.0,18.0,0,0.19214545454546664,80.0
23,2,100.0,False,1.0,0.0,16.0,0,0.16441212121212764,100.0
23,2,0.0,True,1.0,0.0,16.0,1,0.2506545454545603,100.0
23,2,0.0,False,1.0,0.0,20.0,1,0.2556602564102377,100.0
23,2,100.0,False,1.0,0.0,18.0,0,0.2343910256409531,100.0
24,2,100.0,False,1.0,0.0,16.0,0,0.16868902439024505,100.0
24,2,100.0,False,1.0,0.0,17.0,0,0.1779146341463352,100.0
24,2,0.0,False,10.0,0.0,0.0,1,0.27328089887641094,0.0
24,2,100.0,False,1.0,0.0,15.0,0,0.24022560975611376,100.0
24,2,100.0,False,1.0,0.0,16.0,0,0.2343292682926847,100.0
25,2,0.0,False,10.0,0.0,100.0,1,3.4787397881996998,0.0
25,2,0.0,False,1.0,0.0,100.0,1,3.4176647482014415,100.0
25,0,100.0,False,1.0,0.0,18.0,0,0.2035294662849857,40.0
25,2,0.0,False,1.0,0.0,98.0,1,2.677041312272175,100.0
25,2,0.0,False,1.0,0.0,100.0,1,2.8506409638554095,100.0
26,2,0.0,True,10.0,0.0,98.0,1,3.5471463414634323,0.0
26,2,0.0,False,1.0,0.0,98.0,1,3.388933812949618,100.0
26,2,0.0,False,2.0,0.0,58.0,1,1.1229396396396392,60.0
26,2,0.0,False,1.0,0.0,97.0,1,2.947596045197724,100.0
26,2,0.0,False,1.0,0.0,98.0,1,2.917949129852735,100.0
27,2,0.0,False,10.0,0.0,0.0,1,3.6522045454545555,0.0
27,2,100.0,False,1.0,12.0,16.0,0,0.20636781609191948,100.0
27,2,75.20437622070312,False,2.0,0.0,58.0,0,0.22139375542064027,80.0
27,2,100.0,False,1.0,0.0,17.0,0,0.20091515151520564,100.0
27,2,100.0,False,1.0,0.0,20.0,0,0.200224242424244,100.0
28,0,100.0,False,1.0,0.0,20.0,0,0.21225058178397557,20.0
28,2,100.0,False,1.0,12.0,18.0,0,0.22631515151523754,100.0
28,2,100.0,False,1.0,0.0,20.0,0,0.18749696969697593,100.0
28,2,100.0,False,1.0,0.0,17.0,0,0.1862060606059734,100.0
28,2,100.0,False,1.0,0.0,17.0,0,0.2479272727273355,100.0
29,2,0.0,False,3.0,0.0,32.0,1,0.6406622458001747,40.0
29,2,0.0,False,1.0,12.0,97.0,1,3.162752777777781,100.0
29,2,100.0,False,1.0,0.0,16.0,0,0.21310909090908683,100.0
29,2,0.0,False,1.0,0.0,98.0,1,2.8702650918635024,100.0
29,2,0.0,False,1.0,0.0,97.0,1,2.9546591809775298,100.0
30,2,0.0,False,2.0,0.0,59.0,1,1.271101357466065,60.0
30,2,0.0,False,1.0,12.0,98.0,1,3.3683333333333247,100.0
30,2,0.0,False,1.0,0.0,98.0,1,1.9061099691675274,100.0
30,2,0.0,False,1.0,0.0,98.0,1,1.8684495317377752,100.0
30,2,0.0,False,1.0,0.0,98.0,1,2.0060627062706238,100.0
31,2,100.0,False,1.0,0.0,17.0,0,0.15909696969695714,80.0
31,2,100.0,False,1.0,12.0,17.0,0,0.21972727272736708,100.0
31,2,0.0,False,1.0,0.0,95.0,1,2.3532768549280076,100.0
31,2,100.0,False,1.0,0.0,16.0,0,0.17035757575752292,100.0
31,2,100.0,False,1.0,0.0,16.0,0,0.1634484848484245,100.0
32,2,100.0,False,1.0,0.0,20.0,0,0.15917575757576383,100.0
32,2,100.0,False,1.0,12.0,17.0,0,0.18574999999971,100.0
32,2,100.0,False,1.0,0.0,17.0,0,0.15416867469874374,100.0
32,2,100.0,False,1.0,0.0,18.0,0,0.15491515151510557,100.0
32,2,100.0,False,1.0,0.0,18.0,0,0.18161212121209022,100.0
33,2,0.0,False,1.0,0.0,97.0,1,2.585704491725771,100.0
33,2,0.0,False,1.0,12.0,100.0,1,3.419215796897015,100.0
33,2,100.0,False,1.0,0.0,17.0,0,0.16773939393936993,100.0
33,2,0.0,False,1.0,0.0,97.0,1,2.534923627684959,100.0
33,2,0.0,False,1.0,0.0,97.0,1,2.508077658303496,100.0
34,2,0.0,False,1.0,0.0,76.0,1,2.0222669039145815,100.0
34,2,0.0,False,1.0,12.0,100.0,1,3.3758079096045357,100.0
34,2,0.0,False,1.0,0.0,63.0,1,1.9337497155858965,100.0
34,2,0.0,False,1.0,0.0,72.0,1,1.883353826850678,100.0
34,2,0.0,False,1.0,0.0,63.0,1,2.4416597462514518,100.0
35,2,100.0,False,1.0,0.0,15.0,0,0.17178181818182398,100.0
35,2,100.0,False,1.0,12.0,17.0,0,0.2315106382979758,100.0
35,2,0.0,False,1.0,0.0,97.0,1,2.060750250752278,100.0
35,2,100.0,False,1.0,0.0,17.0,0,0.16430303030298973,100.0
35,2,100.0,False,1.0,0.0,17.0,0,0.14824848484863512,100.0
36,2,100.0,False,1.0,0.0,15.0,0,0.16144242424246233,100.0
36,2,100.0,False,1.0,12.0,17.0,0,0.1378121212117769,100.0
36,2,100.0,False,1.0,0.0,15.0,0,0.1776124999999979,100.0
36,2,100.0,False,1.0,0.0,17.0,0,0.18771515151525048,100.0
36,2,100.0,False,1.0,0.0,16.0,0,0.2049393939394742,100.0
37,2,0.0,False,1.0,0.0,100.0,1,2.839762796504369,100.0
37,2,0.0,False,1.0,0.0,97.0,1,3.340484419263484,100.0
37,2,0.0,False,1.0,0.0,18.0,1,0.26376219512198207,100.0
37,2,0.0,False,1.0,0.0,100.0,1,2.866579345088164,100.0
37,2,0.0,False,1.0,0.0,98.0,1,2.8498307888041037,100.0
38,2,0.0,False,1.0,0.0,98.0,1,2.9041809523809574,100.0
38,2,0.0,False,1.0,30.0,100.0,1,3.313197461212977,100.0
38,2,0.0,False,1.0,0.0,97.0,1,2.8123646759847634,100.0
38,2,0.0,False,1.0,3.0,98.0,1,2.882910273081975,100.0
38,2,0.0,False,1.0,0.0,98.0,1,2.7332986486486384,100.0
39,2,0.0,False,1.0,1.0,6.0,1,1.2849397590360747,100.0
39,2,100.0,False,1.0,30.0,16.0,0,0.19858888888900564,100.0
39,2,0.0,False,1.0,0.0,73.0,1,1.1559999999999846,100.0
39,2,100.0,False,1.0,3.0,8.0,0,0.044747126436991025,100.0
39,2,0.0,False,1.0,0.0,12.0,1,0.4455058823528387,100.0
40,0,100.0,False,1.0,0.0,16.0,0,0.16566099284847977,20.0
40,0,100.0,False,1.0,0.0,13.0,0,0.227524291620446,40.0
40,0,100.0,False,1.0,0.0,18.0,0,0.22673967704315076,60.0
40,0,100.0,False,1.0,0.0,16.0,0,0.19792731434914984,80.0
40,0,100.0,False,1.0,0.0,18.0,0,0.2446249839689082,100.0
41,2,0.0,False,3.0,0.0,37.0,1,0.6921431095406343,40.0
41,2,0.0,False,2.0,0.0,55.0,1,0.7951796714579039,60.0
41,2,0.0,False,2.0,0.0,58.0,1,1.6899715157680575,80.0
41,2,0.0,False,1.0,0.0,100.0,1,3.4659319826338644,100.0
41,2,0.0,False,1.0,0.0,100.0,1,3.488157287157288,100.0
42,2,88.0722885131836,False,2.0,0.0,61.0,0,0.212796183868171,60.0
42,2,88.34056854248047,False,2.0,0.0,55.0,0,0.21258145580589666,80.0
42,2,94.59548950195312,False,2.0,0.0,56.0,0,0.20612727272727666,100.0
42,2,0.0,False,1.0,0.0,0.0,1,3.643741350906085,100.0
42,2,0.0,False,1.0,0.0,98.0,1,3.581453507340944,100.0
43,2,100.0,False,1.0,0.0,17.0,0,0.20725301204821606,80.0
43,2,100.0,False,1.0,0.0,18.0,0,0.21328484848482646,100.0
43,2,100.0,False,1.0,0.0,16.0,0,0.12895180722889346,100.0
43,2,0.0,False,1.0,0.0,16.0,1,0.2911249999999384,100.0
43,2,100.0,False,1.0,0.0,16.0,0,0.18578571428569576,100.0
44,2,100.0,False,1.0,0.0,16.0,0,0.180812121212145,100.0
44,2,100.0,False,1.0,0.0,20.0,0,0.17410303030303634,100.0
44,2,0.0,False,1.0,0.0,18.0,1,0.2752848484848596,100.0
44,2,0.0,False,1.0,0.0,18.0,1,0.2949939393939172,100.0
44,2,0.0,False,1.0,0.0,18.0,1,0.2775999999999509,100.0
45,2,0.0,False,1.0,0.0,90.0,1,2.5868776266996325,100.0
45,2,0.0,False,1.0,0.0,98.0,1,2.5366464019851143,100.0
45,2,0.0,False,1.0,0.0,100.0,1,3.739994065281908,100.0
45,2,0.0,False,1.0,0.0,100.0,1,3.4821273516642637,100.0
45,2,0.0,False,1.0,0.0,100.0,1,3.5321873198847276,100.0
46,2,0.0,False,1.0,0.0,95.0,1,2.3601997635933807,100.0
46,2,0.0,False,1.0,0.0,98.0,1,2.164320268756993,100.0
46,2,0.0,False,1.0,0.0,100.0,1,3.5604841498559106,100.0
46,2,0.0,False,1.0,0.0,100.0,1,3.543978354978377,100.0
46,2,0.0,False,1.0,0.0,98.0,1,3.390945312499987,100.0
47,2,0.0,False,1.0,0.0,12.0,1,0.6419822485206232,100.0
47,2,0.0,False,1.0,8.0,12.0,1,1.1189583333331383,100.0
47,2,0.0,False,1.0,12.0,18.0,1,0.25488636363637723,100.0
47,2,0.0,False,1.0,9.0,18.0,1,0.2542835820894747,100.0
47,2,0.0,False,1.0,7.0,17.0,1,2.103217948717919,100.0
48,2,100.0,False,1.0,0.0,18.0,0,0.19679393939395867,100.0
48,2,100.0,False,1.0,8.0,18.0,0,0.24743636363626026,100.0
48,2,0.0,False,1.0,12.0,18.0,1,0.278634146341474,100.0
48,2,0.0,False,1.0,9.0,18.0,1,0.295769696969673,100.0
48,2,0.0,False,1.0,7.0,18.0,1,0.2519146341465319,100.0
49,2,0.0,False,1.0,0.0,87.0,1,2.4541078199051873,100.0
49,2,0.0,False,1.0,8.0,91.0,1,2.3254484711211685,100.0
49,2,0.0,False,1.0,12.0,98.0,1,3.634308370044037,100.0
49,2,0.0,False,1.0,9.0,100.0,1,3.558765467625884,100.0
49,2,0.0,False,1.0,7.0,98.0,1,3.394138028169001,100.0
50,2,0.0,False,1.0,0.0,101.0,1,2.376236263736249,100.0
50,2,0.0,False,1.0,8.0,100.0,1,2.2945585168018328,100.0
50,2,0.0,False,1.0,12.0,98.0,1,3.6340233236151587,100.0
50,2,0.0,False,1.0,9.0,100.0,1,3.5082037302726112,100.0
50,2,0.0,False,1.0,7.0,100.0,1,3.4201956521739123,100.0
51,2,0.0,False,1.0,14.0,17.0,1,1.7384430379745626,100.0
51,2,0.0,False,1.0,28.0,16.0,1,2.1685000000003085,100.0
51,2,100.0,False,1.0,27.0,18.0,0,0.19734782608711743,100.0
51,2,100.0,False,1.0,9.0,15.0,0,0.12461904761894836,100.0
51,2,100.0,False,1.0,27.0,16.0,0,0.22361194029828985,100.0
52,2,100.0,False,1.0,14.0,17.0,0,0.17425609756086177,100.0
52,2,100.0,False,1.0,28.0,16.0,0,0.20844848484857445,100.0
52,2,0.0,False,1.0,27.0,18.0,1,0.2610304878048182,100.0
52,2,0.0,False,1.0,9.0,17.0,1,0.2592256097563466,100.0
52,2,0.0,False,1.0,27.0,18.0,1,0.2597073170732295,100.0
53,2,0.0,False,1.0,14.0,90.0,1,2.5530303383897275,100.0
53,2,0.0,False,1.0,28.0,98.0,1,2.5939667063020124,100.0
53,2,0.0,False,1.0,27.0,98.0,1,3.6283051094890606,100.0
53,2,0.0,False,1.0,9.0,100.0,1,3.5765517241379294,100.0
53,2,0.0,False,1.0,27.0,101.0,1,3.41533333333325,100.0
54,2,0.0,False,1.0,14.0,83.0,1,2.463003550295842,100.0
54,2,0.0,False,1.0,28.0,88.0,1,2.4756588845654925,100.0
54,2,0.0,False,1.0,27.0,98.0,1,3.547070402298883,100.0
54,2,0.0,False,1.0,9.0,100.0,1,3.525108538350252,100.0
54,2,0.0,False,1.0,27.0,100.0,1,3.3529293394777233,100.0
55,2,0.0,False,1.0,14.0,16.0,1,0.5533976608188163,100.0
55,2,100.0,False,1.0,28.0,17.0,0,0.18339393939400683,100.0
55,2,100.0,False,1.0,27.0,18.0,0,0.21542045454543768,100.0
55,2,100.0,False,1.0,9.0,17.0,0,0.24343023255756252,100.0
55,2,100.0,False,1.0,27.0,20.0,0,0.20959210526313513,100.0
56,2,100.0,False,1.0,14.0,12.0,0,0.14584242424240404,100.0
56,2,100.0,False,1.0,28.0,12.0,0,0.12508484848484372,100.0
56,2,100.0,False,1.0,27.0,18.0,0,0.1930484848485679,100.0
56,2,100.0,False,1.0,9.0,17.0,0,0.16276969696967472,100.0
56,2,100.0,False,1.0,27.0,18.0,0,0.22151515151543372,100.0
57,2,0.0,False,1.0,14.0,97.0,1,2.00869165786699,100.0
57,2,0.0,False,1.0,28.0,100.0,1,1.9503509865005133,100.0
57,2,0.0,False,1.0,27.0,100.0,1,3.6356524926686147,100.0
57,2,0.0,False,1.0,0.0,98.0,1,3.50354244604318,100.0
57,2,0.0,False,1.0,27.0,98.0,1,3.4898780141844097,100.0
58,2,0.0,False,1.0,14.0,0.0,1,2.498214460784409,100.0
58,2,0.0,False,1.0,28.0,98.0,1,2.4849441069258726,100.0
58,2,0.0,False,1.0,27.0,98.0,1,3.5809146164978607,100.0
58,2,0.0,False,1.0,0.0,101.0,1,3.4875627769571502,100.0
58,2,0.0,False,1.0,27.0,101.0,1,3.3423751914241677,100.0
59,2,100.0,False,1.0,14.0,15.0,0,0.2229393939391505,100.0
59,2,100.0,False,1.0,28.0,12.0,0,0.20396052631612727,100.0
59,2,100.0,False,1.0,44.0,18.0,0,0.23556976744154334,100.0
59,2,0.0,False,1.0,0.0,16.0,1,0.26828358208963915,100.0
59,2,0.0,False,1.0,27.0,17.0,1,1.1016496815288872,100.0
60,0,100.0,False,1.0,0.0,17.0,0,0.19924381673732575,20.0
60,0,100.0,False,1.0,0.0,17.0,0,0.24936687501214613,40.0
60,0,100.0,False,1.0,0.0,17.0,0,0.23752155092809482,60.0
60,0,100.0,False,1.0,0.0,15.0,0,0.12267579143961331,80.0
60,0,100.0,False,1.0,0.0,13.0,0,0.11897290074720954,100.0
61,2,0.0,False,3.0,0.0,35.0,1,0.5673606986899569,40.0
61,2,0.0,False,3.0,0.0,73.0,1,2.2727907196969737,60.0
61,2,0.0,False,2.0,0.0,48.0,1,0.7910902394106828,80.0
61,2,0.0,False,1.0,0.0,100.0,1,3.419323690046951,100.0
61,2,0.0,False,1.0,0.0,98.0,1,3.4030282885431395,100.0
62,2,96.1068115234375,False,2.0,0.0,46.0,0,0.1817083333333289,60.0
62,2,0.0,False,2.0,0.0,60.0,1,1.3455230627306205,80.0
62,2,0.0,False,1.0,0.0,98.0,1,2.363516880093135,100.0
62,2,0.0,False,1.0,0.0,98.0,1,3.5901589085072185,100.0
62,2,0.0,False,1.0,0.0,98.0,1,3.342080441640375,100.0
63,2,100.0,False,1.0,0.0,18.0,0,0.23791566265060468,80.0
63,2,100.0,False,1.0,0.0,17.0,0,0.23132727272723885,100.0
63,2,0.0,False,1.0,0.0,16.0,1,0.25151265822778207,100.0
63,2,0.0,False,1.0,0.0,16.0,1,0.3367651006712012,100.0
63,2,0.0,False,1.0,0.0,16.0,1,0.7235354838707808,100.0
64,2,100.0,False,1.0,0.0,16.0,0,0.23079393939395945,100.0
64,2,100.0,False,1.0,0.0,18.0,0,0.21870303030299315,100.0
64,2,100.0,False,1.0,0.0,18.0,0,0.17155151515150435,100.0
64,2,100.0,False,1.0,0.0,17.0,0,0.20066666666670324,100.0
64,2,100.0,False,1.0,0.0,17.0,0,0.24135757575758443,100.0
65,2,0.0,False,1.0,0.0,90.0,1,2.552190651906511,100.0
65,2,0.0,False,1.0,0.0,98.0,1,2.601610831234254,100.0
65,2,0.0,False,1.0,0.0,88.0,1,2.60392014742014,100.0
65,2,0.0,False,1.0,0.0,98.0,1,3.5714963289280512,100.0
65,2,0.0,False,1.0,0.0,100.0,1,3.6350324963072254,100.0
66,2,0.0,False,1.0,0.0,88.0,1,2.5397931904161477,100.0
66,2,0.0,False,1.0,0.0,91.0,1,2.54648624999998,100.0
66,2,0.0,False,1.0,0.0,91.0,1,2.5663603034133637,100.0
66,2,0.0,False,1.0,0.0,98.0,1,3.620444790046649,100.0
66,2,0.0,False,1.0,0.0,98.0,1,3.6863353204172644,100.0
67,2,0.0,False,1.0,0.0,20.0,1,0.9215512820512219,100.0
67,2,0.0,False,1.0,0.0,20.0,1,1.2544088050313495,100.0
67,2,0.0,False,1.0,0.0,20.0,1,1.77748484848482,100.0
67,2,100.0,False,1.0,12.0,16.0,0,0.1739729729728719,100.0
67,2,100.0,False,1.0,12.0,18.0,0,0.20444705882368638,100.0
68,2,100.0,False,1.0,0.0,16.0,0,0.21376969696965248,100.0
68,2,100.0,False,1.0,0.0,13.0,0,0.21078181818185399,100.0
68,2,100.0,False,1.0,0.0,15.0,0,0.18455757575754955,100.0
68,2,100.0,False,1.0,12.0,15.0,0,0.18335151515180545,100.0
68,2,100.0,False,1.0,12.0,16.0,0,0.23570303030301695,100.0
69,2,0.0,False,1.0,0.0,100.0,1,2.4147511682242704,100.0
69,2,0.0,False,1.0,0.0,97.0,1,2.4639040284360494,100.0
69,2,0.0,False,1.0,0.0,90.0,1,2.461598074608881,100.0
69,2,0.0,False,1.0,12.0,100.0,1,3.5846744525547316,100.0
69,2,0.0,False,1.0,12.0,98.0,1,3.776258308157119,100.0
70,2,0.0,False,1.0,0.0,100.0,1,2.467655033557049,100.0
70,2,0.0,False,1.0,0.0,100.0,1,2.486056953642357,100.0
70,2,0.0,False,1.0,0.0,101.0,1,2.5163188010899247,100.0
70,2,0.0,False,1.0,12.0,100.0,1,3.5593812499999955,100.0
70,2,0.0,False,1.0,12.0,100.0,1,3.6679268656716286,100.0
71,2,0.0,False,1.0,11.0,16.0,1,4.854662921348239,100.0
71,2,0.0,False,1.0,13.0,11.0,1,5.172831578947368,100.0
71,2,0.0,False,1.0,0.0,13.0,1,2.013240223463448,100.0
71,2,100.0,False,1.0,12.0,17.0,0,0.18096103896107693,100.0
71,2,100.0,False,1.0,12.0,16.0,0,0.14479518072304534,100.0
72,2,100.0,False,1.0,11.0,13.0,0,0.17098787878781105,100.0
72,2,100.0,False,1.0,13.0,11.0,0,0.15674545454542868,100.0
72,2,100.0,False,1.0,0.0,13.0,0,0.18836969696962058,100.0
72,2,100.0,False,1.0,12.0,16.0,0,0.12601818181811364,100.0
72,2,100.0,False,1.0,12.0,16.0,0,0.11796363636343757,100.0
73,2,0.0,False,1.0,11.0,100.0,1,2.4121844311377214,100.0
73,2,0.0,False,1.0,13.0,100.0,1,2.5062120838470827,100.0
73,2,0.0,False,1.0,0.0,98.0,1,2.514203883495145,100.0
73,2,0.0,False,1.0,12.0,100.0,1,3.564160530191502,100.0
73,2,0.0,False,1.0,12.0,100.0,1,3.6672814814814267,100.0
74,2,0.0,False,1.0,11.0,98.0,1,2.524383892617439,100.0
74,2,0.0,False,1.0,13.0,98.0,1,2.519883202099823,100.0
74,2,0.0,False,1.0,0.0,0.0,1,2.4968848167539015,100.0
74,2,0.0,False,1.0,12.0,100.0,1,3.5328371735792437,100.0
74,2,0.0,False,1.0,12.0,100.0,1,3.740418918918993,100.0
75,2,0.0,False,1.0,11.0,15.0,1,4.435802631578841,100.0
75,2,0.0,False,1.0,13.0,12.0,1,3.855317647059008,100.0
75,2,0.0,False,1.0,0.0,16.0,1,1.2871585365847282,100.0
75,2,100.0,False,1.0,12.0,15.0,0,0.16022929936214753,100.0
75,2,100.0,False,1.0,12.0,16.0,0,0.18597647058867392,100.0
76,2,100.0,False,1.0,11.0,15.0,0,0.19875999999985652,100.0
76,2,100.0,False,1.0,13.0,17.0,0,0.17308000000031218,100.0
76,2,100.0,False,1.0,0.0,17.0,0,0.1747333333341521,100.0
76,2,100.0,False,1.0,12.0,16.0,0,0.23806666666612727,100.0
76,2,100.0,False,1.0,12.0,17.0,0,0.20446000000032652,100.0
77,2,0.0,False,1.0,11.0,90.0,1,2.4932929782082667,100.0
77,2,0.0,False,1.0,13.0,98.0,1,2.5645946275946745,100.0
77,2,0.0,False,1.0,0.0,98.0,1,2.5124202898551733,100.0
77,2,0.0,False,1.0,0.0,101.0,1,3.558004464285654,100.0
77,2,0.0,False,1.0,0.0,98.0,1,3.731473015872995,100.0
78,2,0.0,False,1.0,11.0,100.0,1,2.5340997536946195,100.0
78,2,0.0,False,1.0,13.0,88.0,1,2.523491719745328,100.0
78,2,0.0,False,1.0,0.0,91.0,1,2.4929774436091052,100.0
78,2,0.0,False,1.0,0.0,100.0,1,3.582818456883513,100.0
78,2,0.0,False,1.0,43.0,97.0,1,3.7604121405750215,100.0
79,2,0.0,False,1.0,11.0,18.0,1,0.4208311688310566,100.0
79,2,100.0,False,1.0,30.0,13.0,0,0.20298717948744294,100.0
79,2,0.0,False,1.0,0.0,16.0,1,0.7275063291137622,100.0
79,2,100.0,False,1.0,0.0,16.0,0,0.19180606060555982,100.0
79,2,100.0,False,1.0,43.0,20.0,0,0.19352127659561685,100.0
80,0,100.0,False,1.0,0.0,17.0,0,0.174420499695268,20.0
80,0,100.0,False,1.0,0.0,20.0,0,0.2192939431278917,40.0
80,0,100.0,False,1.0,0.0,13.0,0,0.13125718815068527,60.0
80,0,100.0,False,1.0,0.0,20.0,0,0.20908932390815493,80.0
80,0,100.0,False,1.0,0.0,18.0,0,0.21201316816753576,100.0
81,2,0.0,False,4.0,0.0,45.0,1,1.6628259526261604,40.0
81,2,0.0,False,2.0,0.0,53.0,1,1.3790882079851434,60.0
81,2,100.0,False,1.0,0.0,85.0,0,0.14828373702422168,80.0
81,2,0.0,False,1.0,0.0,98.0,1,2.5072446300715963,100.0
81,2,0.0,False,1.0,0.0,98.0,1,2.47401545778835,100.0
82,2,0.0,False,2.0,0.0,51.0,1,0.8239471766848644,60.0
82,2,77.86779022216797,False,2.0,0.0,53.0,0,0.21977162629757768,80.0
82,2,0.0,False,1.0,0.0,96.0,1,0.9023198594024603,100.0
82,2,0.0,False,1.0,0.0,92.0,1,2.5516199524940557,100.0
82,2,0.0,False,1.0,0.0,91.0,1,2.552041362530409,100.0
83,2,100.0,False,1.0,0.0,18.0,0,0.21679999999999686,80.0
83,2,100.0,False,1.0,0.0,13.0,0,0.23121818181817255,100.0
83,2,100.0,False,1.0,0.0,12.0,0,0.15870370370375167,100.0
83,2,100.0,False,1.0,0.0,12.0,0,0.23014545454547755,100.0
83,2,100.0,False,1.0,0.0,15.0,0,0.23235757575761395,100.0
84,2,100.0,False,1.0,0.0,12.0,0,0.07189634146342119,100.0
84,2,100.0,False,1.0,0.0,16.0,0,0.20076829268291532,100.0
84,2,100.0,False,1.0,0.0,12.0,0,0.1313292682927204,100.0
84,2,100.0,False,1.0,0.0,17.0,0,0.20390243902431568,100.0
84,2,100.0,False,1.0,0.0,20.0,0,0.21201829268294184,100.0
85,2,0.0,False,1.0,0.0,100.0,1,3.56861616161616,100.0
85,2,0.0,False,1.0,0.0,100.0,1,2.4955456760048675,100.0
85,2,100.0,False,1.0,0.0,86.0,0,0.15984675324674483,100.0
85,2,0.0,False,1.0,0.0,98.0,1,2.5322815533980445,100.0
85,2,0.0,False,1.0,0.0,100.0,1,2.5004079422382537,100.0
86,2,0.0,False,1.0,0.0,97.0,1,3.5576114369501517,100.0
86,2,0.0,False,1.0,0.0,98.0,1,2.470021656050944,100.0
86,2,100.0,False,1.0,0.0,86.0,0,0.1569194805194718,100.0
86,2,0.0,False,1.0,0.0,98.0,1,2.5922138114209727,100.0
86,2,0.0,False,1.0,0.0,98.0,1,2.5057343565525234,100.0
87,2,100.0,False,1.0,11.0,18.0,0,0.2134096385542247,100.0
87,2,100.0,False,1.0,9.0,13.0,0,0.16076315789475876,100.0
87,2,100.0,False,1.0,0.0,13.0,0,0.1907289156626167,100.0
87,2,100.0,False,1.0,0.0,15.0,0,0.17659393939405466,100.0
87,2,100.0,False,1.0,10.0,15.0,0,0.17293243243229145,100.0
88,2,100.0,False,1.0,11.0,16.0,0,0.16712121212115036,100.0
88,2,100.0,False,1.0,9.0,15.0,0,0.14479999999997137,100.0
88,2,100.0,False,1.0,0.0,13.0,0,0.13609090909095137,100.0
88,2,100.0,False,1.0,0.0,12.0,0,0.16409696969687612,100.0
88,2,100.0,False,1.0,10.0,16.0,0,0.15506060606055666,100.0
89,2,0.0,False,1.0,11.0,100.0,1,3.597236151603503,100.0
89,2,0.0,False,1.0,9.0,98.0,1,2.4893649459783913,100.0
89,2,100.0,False,1.0,0.0,86.0,0,0.14633419913417992,100.0
89,2,0.0,False,1.0,0.0,98.0,1,2.553474637681164,100.0
89,2,0.0,False,1.0,10.0,98.0,1,2.5126906211936437,100.0
90,2,0.0,False,1.0,11.0,98.0,1,3.5913011695906016,100.0
90,2,0.0,False,1.0,9.0,97.0,1,2.4509073359073588,100.0
90,2,100.0,False,1.0,0.0,86.0,0,0.14973615916955138,100.0
90,2,0.0,False,1.0,0.0,100.0,1,2.4965777777777935,100.0
90,2,0.0,False,1.0,10.0,100.0,1,2.5365852713177883,100.0
91,2,100.0,False,1.0,11.0,17.0,0,0.20327906976750493,100.0
91,2,0.0,False,1.0,9.0,10.0,1,0.2774790419162109,100.0
91,2,100.0,False,1.0,0.0,12.0,0,0.10781818181812096,100.0
91,2,100.0,False,1.0,0.0,13.0,0,0.15864848484851596,100.0
91,2,100.0,False,1.0,10.0,12.0,0,0.17715151515154556,100.0
92,2,100.0,False,1.0,11.0,17.0,0,0.2174969696969404,100.0
92,2,100.0,False,1.0,9.0,17.0,0,0.17744242424238163,100.0
92,2,100.0,False,1.0,0.0,12.0,0,0.1385696969697578,100.0
92,2,100.0,False,1.0,0.0,17.0,0,0.18967878787868056,100.0
92,2,100.0,False,1.0,10.0,17.0,0,0.18874545454552086,100.0
93,2,0.0,False,1.0,11.0,98.0,1,3.6512759124087535,100.0
93,2,0.0,False,1.0,9.0,98.0,1,2.5349007263922334,100.0
93,2,100.0,False,1.0,0.0,86.0,0,0.15350865051901552,100.0
93,2,0.0,False,1.0,0.0,100.0,1,2.4241644336175168,100.0
93,2,0.0,False,1.0,10.0,93.0,1,2.4881977886977666,100.0
94,2,0.0,False,1.0,11.0,97.0,1,3.5722106038292076,100.0
94,2,0.0,False,1.0,9.0,0.0,1,2.3592162883845416,100.0
94,2,100.0,False,1.0,0.0,86.0,0,0.15736458333333658,100.0
94,2,0.0,False,1.0,0.0,97.0,1,2.465792161520222,100.0
94,2,0.0,False,1.0,10.0,98.0,1,2.561416772554082,100.0
95,2,0.0,False,1.0,11.0,17.0,1,0.3290718954250384,100.0
95,2,100.0,False,1.0,9.0,15.0,0,0.177236363636257,100.0
95,2,100.0,False,1.0,0.0,13.0,0,0.21070909090915874,100.0
95,2,100.0,False,1.0,0.0,16.0,0,0.19293103448309146,100.0
95,2,0.0,False,1.0,10.0,16.0,1,0.2565481927712131,100.0
96,2,100.0,False,1.0,11.0,18.0,0,0.21419393939381043,100.0
96,2,100.0,False,1.0,9.0,17.0,0,0.24089696969693414,100.0
96,2,100.0,False,1.0,0.0,12.0,0,0.15737575757572508,100.0
96,2,100.0,False,1.0,0.0,17.0,0,0.23015151515088897,100.0
96,2,100.0,False,1.0,10.0,20.0,0,0.2427333333333522,100.0
97,2,0.0,False,1.0,0.0,100.0,1,3.5401284271284124,100.0
97,2,0.0,False,1.0,0.0,101.0,1,2.49985642317388,100.0
97,2,100.0,False,1.0,0.0,87.0,0,0.15892107545534565,100.0
97,2,0.0,False,1.0,0.0,98.0,1,2.6248768292682985,100.0
97,2,0.0,False,1.0,0.0,97.0,1,2.6236545012166164,100.0
98,2,0.0,False,1.0,29.0,98.0,1,3.6443201174742317,100.0
98,2,0.0,False,1.0,0.0,98.0,1,2.4779165673422052,100.0
98,2,100.0,False,1.0,0.0,86.0,0,0.1590164359861693,100.0
98,2,0.0,False,1.0,0.0,100.0,1,2.4699450830141005,100.0
98,2,0.0,False,1.0,0.0,100.0,1,2.468977070063691,100.0
99,2,100.0,False,1.0,29.0,18.0,0,0.16388235294156508,100.0
99,2,100.0,False,1.0,16.0,16.0,0,0.19836619718241733,100.0
99,2,100.0,False,1.0,0.0,13.0,0,0.15141212121209746,100.0
99,2,100.0,False,1.0,14.0,17.0,0,0.1754794520545633,100.0
99,2,0.0,False,1.0,0.0,16.0,1,1.2907630057797561,100.0
100,0,0.0,False,1.0,0.0,20.0,1,0.2607774151610264,20.0
100,0,100.0,False,1.0,0.0,16.0,0,0.15018254423071883,40.0
100,0,0.0,False,1.0,0.0,21.0,1,0.26238312293731275,60.0
100,0,100.0,False,1.0,0.0,16.0,0,0.2217580617218779,80.0
100,0,100.0,False,1.0,0.0,18.0,0,0.24847603328458084,100.0
101,2,0.0,False,2.0,0.0,25.0,1,1.7137523540489654,40.0
101,2,0.0,False,2.0,0.0,54.0,1,0.5872245614035084,60.0
101,2,0.0,False,2.0,0.0,87.0,1,2.168084960937498,80.0
101,2,0.0,False,1.0,0.0,88.0,1,2.393068427370951,100.0
101,2,0.0,False,1.0,0.0,98.0,1,3.6268350364963533,100.0
102,2,0.0,False,2.0,0.0,38.0,1,1.5141037463976958,60.0
102,2,94.3450698852539,False,2.0,0.0,51.0,0,0.20649307958477442,80.0
102,2,0.0,False,1.0,0.0,100.0,1,3.2133422913719927,100.0
102,2,0.0,False,1.0,0.0,86.0,1,2.3941763085399383,100.0
102,2,0.0,False,1.0,0.0,98.0,1,3.645488269794715,100.0
103,2,0.0,False,1.0,0.0,20.0,1,0.2833575757575724,80.0
103,2,100.0,False,1.0,0.0,11.0,0,0.18490303030302624,100.0
103,2,0.0,False,1.0,0.0,17.0,1,0.29913245033110086,100.0
103,2,0.0,False,1.0,0.0,11.0,1,0.7573846153845537,100.0
103,2,0.0,False,1.0,0.0,21.0,1,0.257878787878811,100.0
104,2,100.0,False,1.0,0.0,16.0,0,0.20720731707316498,100.0
104,2,100.0,False,1.0,0.0,20.0,0,0.21521951219509453,100.0
104,2,100.0,False,1.0,0.0,16.0,0,0.1759207317073039,100.0
104,2,100.0,False,1.0,0.0,21.0,0,0.2109333333333118,100.0
104,2,100.0,False,1.0,0.0,16.0,0,0.15434756097563812,100.0
105,2,0.0,False,1.0,0.0,98.0,1,3.5420658082975685,100.0
105,2,0.0,False,1.0,0.0,97.0,1,2.501361575178998,100.0
105,2,0.0,False,1.0,0.0,98.0,1,3.599838038632985,100.0
105,2,0.0,False,1.0,0.0,86.0,1,2.5743772455089617,100.0
105,2,0.0,False,1.0,0.0,100.0,1,3.4944900849858276,100.0
106,2,0.0,False,1.0,0.0,98.0,1,3.5287344877344764,100.0
106,2,0.0,False,1.0,0.0,88.0,1,2.4990169491525256,100.0
106,2,0.0,False,1.0,0.0,100.0,1,3.5893507462686687,100.0
106,2,0.0,False,1.0,0.0,80.0,1,2.5010905752753856,100.0
106,2,0.0,False,1.0,0.0,101.0,1,3.461420310296212,100.0
107,2,100.0,False,1.0,11.0,17.0,0,0.16697727272737045,100.0
107,2,100.0,False,1.0,0.0,17.0,0,0.17671518987341947,100.0
107,2,100.0,False,1.0,12.0,16.0,0,0.14644943820224327,100.0
107,2,0.0,False,1.0,9.0,16.0,1,1.3005443037974962,100.0
107,2,100.0,False,1.0,9.0,17.0,0,0.17091666666667357,100.0
108,2,100.0,False,1.0,11.0,17.0,0,0.15647272727265688,100.0
108,2,100.0,False,1.0,0.0,17.0,0,0.19737575757571352,100.0
108,2,100.0,False,1.0,12.0,17.0,0,0.17665454545452974,100.0
108,2,100.0,False,1.0,9.0,17.0,0,0.19630303030312599,100.0
108,2,100.0,False,1.0,9.0,15.0,0,0.11374545454546574,100.0
109,2,0.0,False,1.0,11.0,100.0,1,3.526411267605634,100.0
109,2,0.0,False,1.0,0.0,98.0,1,2.553472972972964,100.0
109,2,0.0,False,1.0,12.0,100.0,1,3.6724313725489957,100.0
109,2,0.0,False,1.0,9.0,88.0,1,2.639368486352324,100.0
109,2,0.0,False,1.0,9.0,100.0,1,3.4808441926345726,100.0
110,2,0.0,False,1.0,11.0,100.0,1,3.528195714285708,100.0
110,2,0.0,False,1.0,0.0,98.0,1,2.54231763285025,100.0
110,2,0.0,False,1.0,12.0,100.0,1,3.564286995515706,100.0
110,2,0.0,False,1.0,9.0,86.0,1,2.4426606714628476,100.0
110,2,0.0,False,1.0,9.0,0.0,1,3.3344358161648273,100.0
111,2,100.0,False,1.0,27.0,20.0,0,0.23397222222216543,100.0
111,2,0.0,False,1.0,14.0,20.0,1,2.3751395348838975,100.0
111,2,100.0,False,1.0,12.0,17.0,0,0.22185555555580425,100.0
111,2,0.0,False,1.0,26.0,21.0,1,1.2851249999998118,100.0
111,2,0.0,False,1.0,24.0,18.0,1,1.3626842105262957,100.0
112,2,100.0,False,1.0,27.0,17.0,0,0.19544578313237376,100.0
112,2,100.0,False,1.0,14.0,18.0,0,0.22060606060605836,100.0
112,2,100.0,False,1.0,12.0,17.0,0,0.15639024390255632,100.0
112,2,100.0,False,1.0,26.0,17.0,0,0.19497575757567107,100.0
112,2,100.0,False,1.0,24.0,17.0,0,0.15087951807233468,100.0
113,2,0.0,False,1.0,27.0,100.0,1,3.4747218259628982,100.0
113,2,0.0,False,1.0,14.0,97.0,1,2.5202515114873205,100.0
113,2,0.0,False,1.0,12.0,98.0,1,3.6776641104295145,100.0
113,2,0.0,False,1.0,26.0,85.0,1,2.5812766217870284,100.0
113,2,0.0,False,1.0,24.0,100.0,1,3.507214793741112,100.0
114,2,0.0,False,1.0,27.0,100.0,1,3.4747157287157115,100.0
114,2,0.0,False,1.0,14.0,87.0,1,2.481479902557821,100.0
114,2,0.0,False,1.0,12.0,100.0,1,3.5751430722891633,100.0
114,2,0.0,False,1.0,26.0,92.0,1,2.5122162818955314,100.0
114,2,0.0,False,1.0,24.0,100.0,1,3.392153963414629,100.0
115,2,100.0,False,1.0,27.0,18.0,0,0.2091279069768778,100.0
115,2,0.0,False,1.0,14.0,20.0,1,2.0366708860762595,100.0
115,2,0.0,False,1.0,12.0,18.0,1,0.27117894736794895,100.0
115,2,0.0,False,1.0,26.0,20.0,1,1.421924050632478,100.0
115,2,0.0,False,1.0,24.0,17.0,1,0.285014492753217,100.0
116,2,0.0,False,1.0,27.0,18.0,1,0.28183734939820315,100.0
116,2,100.0,False,1.0,14.0,15.0,0,0.2199518072291386,100.0
116,2,0.0,False,1.0,12.0,20.0,1,0.25803614457824103,100.0
116,2,100.0,False,1.0,26.0,17.0,0,0.1895090909092246,100.0
116,2,100.0,False,1.0,24.0,16.0,0,0.23037349397591575,100.0
117,2,0.0,False,1.0,27.0,100.0,1,3.591024390243907,100.0
117,2,0.0,False,1.0,14.0,92.0,1,2.5289050000000723,100.0
117,2,0.0,False,1.0,0.0,98.0,1,3.696053272450506,100.0
117,2,0.0,False,1.0,26.0,83.0,1,2.65674438902748,100.0
117,2,0.0,False,1.0,24.0,100.0,1,3.3209546703297383,100.0
118,2,0.0,False,1.0,42.0,98.0,1,3.4813228120516606,100.0
118,2,0.0,False,1.0,14.0,90.0,1,2.504957193816908,100.0
118,2,0.0,False,1.0,44.0,100.0,1,3.6050720720720326,100.0
118,2,0.0,False,1.0,26.0,91.0,1,2.4130764635603508,100.0
118,2,0.0,False,1.0,24.0,100.0,1,3.4803333333333515,100.0
119,2,100.0,False,1.0,42.0,15.0,0,0.14260465116244314,100.0
119,2,0.0,False,1.0,14.0,20.0,1,3.28526744186105,100.0
119,2,100.0,False,1.0,44.0,16.0,0,0.12894505494549885,100.0
119,2,0.0,False,1.0,26.0,21.0,1,2.8911176470595388,100.0
119,2,0.0,False,1.0,24.0,16.0,1,0.28917142857187306,100.0
120,0,0.0,False,1.0,0.0,17.0,1,0.28357040816369933,20.0
120,0,0.0,False,1.0,0.0,15.0,1,0.261518706574593,40.0
120,0,100.0,False,1.0,0.0,17.0,0,0.236455451593905,60.0
120,0,100.0,False,1.0,0.0,18.0,0,0.17757502798038402,80.0
120,0,100.0,False,1.0,0.0,20.0,0,0.17813065261068242,100.0
121,2,0.0,False,4.0,0.0,45.0,1,1.492247553816046,40.0
121,2,0.0,False,2.0,0.0,98.0,1,3.5030812013348136,60.0
121,2,0.0,False,2.0,0.0,100.0,1,3.138053140096619,80.0
121,2,0.0,False,1.0,0.0,98.0,1,2.6003816187629076,100.0
121,2,0.0,False,1.0,0.0,92.0,1,2.553951325659022,100.0
122,2,0.0,False,2.0,0.0,57.0,1,1.0217294552169909,60.0
122,2,0.0,False,2.0,0.0,54.0,1,0.5736796536796492,80.0
122,2,0.0,False,1.0,0.0,100.0,1,3.6564048338368482,100.0
122,2,0.0,False,1.0,0.0,98.0,1,2.4520434243176163,100.0
122,2,0.0,False,1.0,0.0,101.0,1,2.6180451030927805,100.0
123,2,100.0,False,1.0,0.0,18.0,0,0.24315662650603528,80.0
123,2,100.0,False,1.0,0.0,16.0,0,0.22471084337349206,100.0
123,2,100.0,False,1.0,0.0,16.0,0,0.19549019607846013,100.0
123,2,0.0,False,1.0,0.0,18.0,1,1.1567345679011536,100.0
123,2,0.0,False,1.0,0.0,20.0,1,1.6017559523808673,100.0
124,2,0.0,False,1.0,0.0,18.0,1,0.27360606060605497,100.0
124,2,0.0,False,1.0,0.0,20.0,1,0.29263030303032295,100.0
124,2,0.0,False,1.0,0.0,18.0,1,0.2574060606060536,100.0
124,2,100.0,False,1.0,0.0,16.0,0,0.17144848484847788,100.0
124,2,100.0,False,1.0,0.0,18.0,0,0.16805454545454157,100.0
125,2,0.0,False,1.0,0.0,0.0,1,3.65934876989869,100.0
125,2,0.0,False,1.0,0.0,100.0,1,3.4946526019690483,100.0
125,2,0.0,False,1.0,0.0,98.0,1,3.445263083451215,100.0
125,2,0.0,False,1.0,0.0,87.0,1,2.492118764845596,100.0
125,2,0.0,False,1.0,0.0,90.0,1,2.619527511961705,100.0
126,2,0.0,False,1.0,0.0,100.0,1,3.513077697841711,100.0
126,2,0.0,False,1.0,0.0,98.0,1,3.4803478939157504,100.0
126,2,0.0,False,1.0,0.0,0.0,1,3.4085794392522986,100.0
126,2,0.0,False,1.0,0.0,100.0,1,2.523742011834299,100.0
126,2,0.0,False,1.0,0.0,91.0,1,2.437650872817967,100.0
127,2,0.0,False,1.0,9.0,17.0,1,0.503269841269829,100.0
127,2,100.0,False,1.0,11.0,17.0,0,0.19246575342454791,100.0
127,2,0.0,False,1.0,9.0,18.0,1,1.77242465753428,100.0
127,2,0.0,False,1.0,10.0,15.0,1,2.4071807228915483,100.0
127,2,100.0,False,1.0,0.0,17.0,0,0.22007500000000846,100.0
128,2,100.0,False,1.0,9.0,17.0,0,0.24365454545453152,100.0
128,2,100.0,False,1.0,11.0,17.0,0,0.22560606060628327,100.0
128,2,100.0,False,1.0,9.0,18.0,0,0.22996363636372155,100.0
128,2,100.0,False,1.0,10.0,15.0,0,0.21416969696975047,100.0
128,2,100.0,False,1.0,0.0,13.0,0,0.2128121212121407,100.0
129,2,0.0,False,1.0,9.0,100.0,1,3.500421276595766,100.0
129,2,0.0,False,1.0,11.0,100.0,1,3.5075683139535068,100.0
129,2,0.0,False,1.0,9.0,101.0,1,3.478941007194202,100.0
129,2,0.0,False,1.0,10.0,100.0,1,2.4023318077803024,100.0
129,2,0.0,False,1.0,0.0,97.0,1,2.383796874999969,100.0
130,2,0.0,False,1.0,9.0,100.0,1,3.467377329192558,100.0
130,2,0.0,False,1.0,11.0,100.0,1,3.44451908396946,100.0
130,2,0.0,False,1.0,9.0,100.0,1,3.4119077901430725,100.0
130,2,0.0,False,1.0,10.0,90.0,1,2.3386982968369936,100.0
130,2,0.0,False,1.0,0.0,86.0,1,2.4056806930693035,100.0
131,2,0.0,False,1.0,28.0,17.0,1,0.39895238095243896,100.0
131,2,100.0,False,1.0,11.0,15.0,0,0.1337123287671789,100.0
131,2,0.0,False,1.0,9.0,17.0,1,2.2913333333331014,100.0
131,2,0.0,False,1.0,25.0,17.0,1,3.4686219512196415,100.0
131,2,100.0,False,1.0,0.0,15.0,0,0.20175641025665614,100.0
132,2,100.0,False,1.0,28.0,18.0,0,0.23067073170730554,100.0
132,2,100.0,False,1.0,11.0,18.0,0,0.1712060606060373,100.0
132,2,100.0,False,1.0,9.0,16.0,0,0.1612363636365582,100.0
132,2,100.0,False,1.0,25.0,20.0,0,0.18714634146334258,100.0
132,2,100.0,False,1.0,0.0,20.0,0,0.18047560975601964,100.0
133,2,0.0,False,1.0,28.0,100.0,1,3.448766714082506,100.0
133,2,0.0,False,1.0,11.0,98.0,1,3.4180657342657,100.0
133,2,0.0,False,1.0,9.0,100.0,1,3.489716763005752,100.0
133,2,0.0,False,1.0,25.0,100.0,1,2.486035629453678,100.0
133,2,0.0,False,1.0,0.0,98.0,1,2.544139315230178,100.0
134,2,0.0,False,1.0,28.0,0.0,1,3.3534984227129576,100.0
134,2,0.0,False,1.0,11.0,98.0,1,3.4883435582822675,100.0
134,2,0.0,False,1.0,9.0,0.0,1,3.301473604826558,100.0
134,2,0.0,False,1.0,25.0,100.0,1,2.6309010856453905,100.0
134,2,0.0,False,1.0,0.0,87.0,1,2.432535264483697,100.0
135,2,0.0,False,1.0,28.0,16.0,1,0.7125373134330769,100.0
135,2,100.0,False,1.0,11.0,17.0,0,0.21483783783854027,100.0
135,2,0.0,False,1.0,9.0,17.0,1,0.8079050632912163,100.0
135,2,0.0,False,1.0,25.0,13.0,1,2.229807692307403,100.0
135,2,100.0,False,1.0,0.0,16.0,0,0.19551282051319363,100.0
136,2,100.0,False,1.0,28.0,15.0,0,0.18091515151490137,100.0
136,2,100.0,False,1.0,11.0,18.0,0,0.2235515151512421,100.0
136,2,100.0,False,1.0,9.0,16.0,0,0.19489696969723092,100.0
136,2,100.0,False,1.0,25.0,18.0,0,0.21150909090859138,100.0
136,2,100.0,False,1.0,0.0,20.0,0,0.1993939393934411,100.0
137,2,0.0,False,1.0,28.0,100.0,1,3.3660611961056826,100.0
137,2,0.0,False,1.0,0.0,100.0,1,3.5590271816881702,100.0
137,2,0.0,False,1.0,0.0,98.0,1,3.5633985611509766,100.0
137,2,0.0,False,1.0,25.0,95.0,1,2.479148194271502,100.0
137,2,0.0,False,1.0,0.0,98.0,1,2.544567436209027,100.0
138,2,0.0,False,1.0,28.0,100.0,1,3.3540916271721666,100.0
138,2,0.0,False,1.0,0.0,101.0,1,3.474049306625549,100.0
138,2,0.0,False,1.0,0.0,98.0,1,3.37316998468602,100.0
138,2,0.0,False,1.0,25.0,98.0,1,2.6550927467301233,100.0
138,2,0.0,False,1.0,0.0,91.0,1,2.355745271122412,100.0
139,2,0.0,False,1.0,28.0,18.0,1,0.642957746478945,100.0
139,2,0.0,False,1.0,42.0,18.0,1,0.30381944444429293,100.0
139,2,0.0,False,1.0,0.0,18.0,1,0.8472686567165238,100.0
139,2,0.0,False,1.0,42.0,17.0,1,0.5434810126582443,100.0
139,2,0.0,False,1.0,0.0,17.0,1,3.97048387096787,100.0
